@startuml


package Domain {
    component Model
}

package CLI {
    component Any

    Any --> Model
}

package Web {
    
    component View
    component Controller

    View --> Model
    Controller --> Model
    Controller --> View
}


@enduml