<?xml version="1.0" encoding="UTF-8" standalone="no"?>
<svg
   xmlns:dc="http://purl.org/dc/elements/1.1/"
   xmlns:cc="http://creativecommons.org/ns#"
   xmlns:rdf="http://www.w3.org/1999/02/22-rdf-syntax-ns#"
   xmlns:svg="http://www.w3.org/2000/svg"
   xmlns="http://www.w3.org/2000/svg"
   xmlns:sodipodi="http://sodipodi.sourceforge.net/DTD/sodipodi-0.dtd"
   xmlns:inkscape="http://www.inkscape.org/namespaces/inkscape"
   inkscape:version="1.0 (4035a4fb49, 2020-05-01)"
   sodipodi:docname="puzzle-1.svg"
   width="296.61807mm"
   height="219.24153mm"
   viewBox="0 0 296.61807 219.24153"
   version="1.1"
   id="svg886">
  <sodipodi:namedview
     inkscape:current-layer="svg886"
     inkscape:window-maximized="1"
     inkscape:window-y="1"
     inkscape:window-x="0"
     inkscape:cy="414.3147"
     inkscape:cx="560.53809"
     inkscape:zoom="1.0101017"
     showgrid="false"
     id="namedview10"
     inkscape:window-height="2136"
     inkscape:window-width="3840"
     inkscape:pageshadow="2"
     inkscape:pageopacity="0"
     guidetolerance="10"
     gridtolerance="10"
     objecttolerance="10"
     borderopacity="1"
     bordercolor="#666666"
     pagecolor="#ffffff" />
  <defs
     id="defs880" />
  <metadata
     id="metadata883">
    <rdf:RDF>
      <cc:Work
         rdf:about="">
        <dc:format>image/svg+xml</dc:format>
        <dc:type
           rdf:resource="http://purl.org/dc/dcmitype/StillImage" />
        <dc:title />
      </cc:Work>
    </rdf:RDF>
  </metadata>
  <path
     id="rect833"
     style="fill:none;stroke:#000000;stroke-width:1.807;stroke-miterlimit:4;stroke-dasharray:none;stroke-opacity:1"
     d="m 41.187469,60.261787 a 13.923759,13.923759 0 0 0 -13.9237,13.923701 13.923759,13.923759 0 0 0 0.001,0.15658 H 6.2242276 V 97.016134 A 13.923758,13.923758 0 0 1 6.3430777,97.015614 13.923758,13.923758 0 0 1 20.266782,110.93931 13.923758,13.923758 0 0 1 6.3430777,124.863 13.923758,13.923758 0 0 1 6.2242276,124.86247 v 22.41672 H 27.264289 a 13.923759,13.923759 0 0 0 13.92318,13.85548 13.923759,13.923759 0 0 0 13.923698,-13.85548 h 24.050204 v -5.23844 a 13.923758,13.923758 0 0 1 -0.0827,0 13.923758,13.923758 0 0 1 -13.924212,-13.9237 13.923758,13.923758 0 0 1 13.924212,-13.9237 13.923758,13.923758 0 0 1 0.0827,5.3e-4 v -6.39806 a 13.923758,13.923758 0 0 1 -0.0827,5.3e-4 13.923758,13.923758 0 0 1 -13.924212,-13.923696 13.923758,13.923758 0 0 1 13.924212,-13.923705 13.923758,13.923758 0 0 1 0.0827,5.29e-4 v -5.60741 H 55.110648 a 13.923759,13.923759 0 0 0 0.0011,-0.15658 13.923759,13.923759 0 0 0 -13.924209,-13.923701 z" />
  <path
     id="rect865"
     style="fill:none;stroke:#000000;stroke-width:1.807;stroke-miterlimit:4;stroke-dasharray:1.807, 1.807;stroke-dashoffset:0;stroke-opacity:1"
     d="m 112.49425,74.210999 v 5.522661 a 13.923759,13.923759 0 0 0 -0.0408,-5.29e-4 13.923759,13.923759 0 0 0 -13.923696,13.923703 13.923759,13.923759 0 0 0 13.923696,13.923696 13.923759,13.923759 0 0 0 0.0408,0 v 6.54844 a 13.923759,13.923759 0 0 0 -0.0408,-5.3e-4 13.923759,13.923759 0 0 0 -13.923696,13.9237 13.923759,13.923759 0 0 0 13.923696,13.9237 13.923759,13.923759 0 0 0 0.0408,0 v 5.17229 H 185.4314 V 74.210999 Z" />
  <path
     d="m 217.45664,5.6950609 v 5.5226621 a 13.923759,13.923759 0 0 0 -0.0408,-5.29e-4 13.923759,13.923759 0 0 0 -13.9237,13.923699 13.923759,13.923759 0 0 0 13.9237,13.923698 13.923759,13.923759 0 0 0 0.0408,0 v 6.54844 a 13.923759,13.923759 0 0 0 -0.0408,-5.29e-4 13.923759,13.923759 0 0 0 -13.9237,13.923701 13.923759,13.923759 0 0 0 13.9237,13.923703 13.923759,13.923759 0 0 0 0.0408,0 v 5.172289 H 290.3938 V 5.6950609 Z"
     style="fill:#fd0202;fill-opacity:1;stroke:#000000;stroke-width:1.807;stroke-miterlimit:4;stroke-dasharray:none;stroke-opacity:1"
     id="path876" />
  <path
     id="path878"
     style="fill:#1b02fd;fill-opacity:1;stroke:#000000;stroke-width:1.807;stroke-miterlimit:4;stroke-dasharray:none;stroke-opacity:1"
     d="m 217.06071,141.13847 v 5.52266 a 13.923759,13.923759 0 0 0 -0.0408,-5.3e-4 13.923759,13.923759 0 0 0 -13.9237,13.9237 13.923759,13.923759 0 0 0 13.9237,13.9237 13.923759,13.923759 0 0 0 0.0408,0 v 6.54844 a 13.923759,13.923759 0 0 0 -0.0408,-5.3e-4 13.923759,13.923759 0 0 0 -13.9237,13.9237 13.923759,13.923759 0 0 0 13.9237,13.92371 13.923759,13.923759 0 0 0 0.0408,0 v 5.17228 h 72.93715 v -72.93713 z" />
</svg>
