@startuml


interface Model {

}
note bottom: Motor do Carro

interface View {

}
note bottom: Lataria do Carro

interface ViewModelFactory {
    + makeModel() : Model
    + makeView() : View
}
note top: AbstractFactory\nFabrica de partes do carro

ViewModelFactory --> Model : makes
ViewModelFactory --> View: makes



class ProductViewModelFactory {

}
note top: Fabrica de Ferrari

class Product {

}
note bottom: Motor da Ferrari

class ProductFrame {

}
note bottom: Lataria da Ferrari

ProductViewModelFactory --|> ViewModelFactory
Product --|> Model
ProductFrame --|> View
ProductViewModelFactory --> Product: makes
ProductViewModelFactory --> ProductFrame: makes


class CustomerViewModelFactory {

}
note top: Fabrica de Fusca

class Customer {

}
note bottom: Motor do Fusca

class CustomerFrame {

}
note bottom: Lataria do Fusca

CustomerViewModelFactory --|> ViewModelFactory
Customer --|> Model
CustomerFrame --|> View
CustomerViewModelFactory --> Customer: makes
CustomerViewModelFactory --> CustomerFrame: makes

@enduml
